{
   "common":{
      "name":"csharpcennector",
      "version":"1.0.0",
      "news":{
         "1.1.0":{
            "en":"C-Sharp adapter for ioBroker",
            "de":"C-Sharp adapter for ioBroker"
         }
      },
      "title":"C-Sharp",
      "titleLang":{
         "en":"C-Sharp adapter for ioBroker",
         "de":"C-Sharp adapter for ioBroker"
      },
      "desc":{
         "en":"Connects DMXfaceXP by ACTIVE SEND protocoll",
         "de":"Verbindet das DMXfaceXP über das ACTICE SEND Protokoll"
      },
      "authors":[
         "Author <info@scheffi.eu>"
      ],
      "keywords":[
         "ioBroker",
      ],
      "license":"MIT",
      "platform":"Javascript/Node.js",
      "main":"main.js",
      "icon":"applogo.png",
      "enabled":true,
      "extIcon":"https://raw.githubusercontent.com/DMXface/ioBroker.dmxface/master/admin/applogo.png",
      "readme":"https://github.com/DMXface/ioBroker.dmxface/blob/master/README.md",
      "loglevel":"info",
      "mode":"daemon",
      "type":"general",
      "compact":true,
      "materialize":true,
      "materializeTab":true,
      "adminTab":{
         "singleton":true,
         "name":{
            "en":"C-Sharp",
            "de":"C-Sharp"
         },
         "link":"www.scheffi.eu",
         "fa-icon":"info"
      },
      "supportCustoms":true,
      "dependencies":[
         {
            "js-controller":">=1.4.2"
         }
      ]
   },
   "native":{
      "ipaddress":"0.0.0.0",
      "port":"6000"
   },
   "objects":[

   ],
   "instanceObjects":[

   ]
}